^C:\USERS\JUNE\SOURCE\REPOS\CPPENCRYPTBATCHSERVICE\WINDOWS\SAMPLE\PREPACKAGER\BUILD\PREPACKAGER\WIN32\DEBUG\JSONCPP.OBJ|C:\USERS\JUNE\SOURCE\REPOS\CPPENCRYPTBATCHSERVICE\WINDOWS\SAMPLE\PREPACKAGER\BUILD\PREPACKAGER\WIN32\DEBUG\PREPACKAGER.OBJ|C:\USERS\JUNE\SOURCE\REPOS\CPPENCRYPTBATCHSERVICE\WINDOWS\SAMPLE\PREPACKAGER\BUILD\PREPACKAGER\WIN32\DEBUG\PREPACKAGER.RES|C:\USERS\JUNE\SOURCE\REPOS\CPPENCRYPTBATCHSERVICE\WINDOWS\SAMPLE\PREPACKAGER\BUILD\PREPACKAGER\WIN32\DEBUG\PREPACKAGERDLG.OBJ|C:\USERS\JUNE\SOURCE\REPOS\CPPENCRYPTBATCHSERVICE\WINDOWS\SAMPLE\PREPACKAGER\BUILD\PREPACKAGER\WIN32\DEBUG\STDAFX.OBJ
C:\USERS\JUNE\SOURCE\REPOS\CPPENCRYPTBATCHSERVICE\WINDOWS\SAMPLE\PREPACKAGER\BIN\WIN32\PREPACKAGER.EXE
C:\USERS\JUNE\SOURCE\REPOS\CPPENCRYPTBATCHSERVICE\WINDOWS\SAMPLE\PREPACKAGER\BIN\WIN32\PREPACKAGER.ILK
C:\USERS\JUNE\SOURCE\REPOS\CPPENCRYPTBATCHSERVICE\WINDOWS\SAMPLE\PREPACKAGER\BIN\WIN32\PREPACKAGER.PDB
