^C:\USERS\JUNE\DOWNLOADS\CURL-7.62.0\CURL-7.62.0\LIB\CURL_CTYPE.C|C:\USERS\JUNE\DOWNLOADS\CURL-7.62.0\CURL-7.62.0\LIB\NONBLOCK.C|C:\USERS\JUNE\DOWNLOADS\CURL-7.62.0\CURL-7.62.0\LIB\STRTOOFFT.C|C:\USERS\JUNE\DOWNLOADS\CURL-7.62.0\CURL-7.62.0\LIB\WARNLESS.C|C:\USERS\JUNE\DOWNLOADS\CURL-7.62.0\CURL-7.62.0\SRC\SLIST_WC.C|C:\USERS\JUNE\DOWNLOADS\CURL-7.62.0\CURL-7.62.0\SRC\TOOL_BINMODE.C|C:\USERS\JUNE\DOWNLOADS\CURL-7.62.0\CURL-7.62.0\SRC\TOOL_BNAME.C|C:\USERS\JUNE\DOWNLOADS\CURL-7.62.0\CURL-7.62.0\SRC\TOOL_CB_DBG.C|C:\USERS\JUNE\DOWNLOADS\CURL-7.62.0\CURL-7.62.0\SRC\TOOL_CB_HDR.C|C:\USERS\JUNE\DOWNLOADS\CURL-7.62.0\CURL-7.62.0\SRC\TOOL_CB_PRG.C|C:\USERS\JUNE\DOWNLOADS\CURL-7.62.0\CURL-7.62.0\SRC\TOOL_CB_REA.C|C:\USERS\JUNE\DOWNLOADS\CURL-7.62.0\CURL-7.62.0\SRC\TOOL_CB_SEE.C|C:\USERS\JUNE\DOWNLOADS\CURL-7.62.0\CURL-7.62.0\SRC\TOOL_CB_WRT.C|C:\USERS\JUNE\DOWNLOADS\CURL-7.62.0\CURL-7.62.0\SRC\TOOL_CFGABLE.C|C:\USERS\JUNE\DOWNLOADS\CURL-7.62.0\CURL-7.62.0\SRC\TOOL_CONVERT.C|C:\USERS\JUNE\DOWNLOADS\CURL-7.62.0\CURL-7.62.0\SRC\TOOL_DIRHIE.C|C:\USERS\JUNE\DOWNLOADS\CURL-7.62.0\CURL-7.62.0\SRC\TOOL_DOSWIN.C|C:\USERS\JUNE\DOWNLOADS\CURL-7.62.0\CURL-7.62.0\SRC\TOOL_EASYSRC.C|C:\USERS\JUNE\DOWNLOADS\CURL-7.62.0\CURL-7.62.0\SRC\TOOL_FILETIME.C|C:\USERS\JUNE\DOWNLOADS\CURL-7.62.0\CURL-7.62.0\SRC\TOOL_FORMPARSE.C|C:\USERS\JUNE\DOWNLOADS\CURL-7.62.0\CURL-7.62.0\SRC\TOOL_GETPARAM.C|C:\USERS\JUNE\DOWNLOADS\CURL-7.62.0\CURL-7.62.0\SRC\TOOL_GETPASS.C|C:\USERS\JUNE\DOWNLOADS\CURL-7.62.0\CURL-7.62.0\SRC\TOOL_HELP.C|C:\USERS\JUNE\DOWNLOADS\CURL-7.62.0\CURL-7.62.0\SRC\TOOL_HELPERS.C|C:\USERS\JUNE\DOWNLOADS\CURL-7.62.0\CURL-7.62.0\SRC\TOOL_HOMEDIR.C|C:\USERS\JUNE\DOWNLOADS\CURL-7.62.0\CURL-7.62.0\SRC\TOOL_HUGEHELP.C|C:\USERS\JUNE\DOWNLOADS\CURL-7.62.0\CURL-7.62.0\SRC\TOOL_LIBINFO.C|C:\USERS\JUNE\DOWNLOADS\CURL-7.62.0\CURL-7.62.0\SRC\TOOL_MAIN.C|C:\USERS\JUNE\DOWNLOADS\CURL-7.62.0\CURL-7.62.0\SRC\TOOL_METALINK.C|C:\USERS\JUNE\DOWNLOADS\CURL-7.62.0\CURL-7.62.0\SRC\TOOL_MSGS.C|C:\USERS\JUNE\DOWNLOADS\CURL-7.62.0\CURL-7.62.0\SRC\TOOL_OPERATE.C|C:\USERS\JUNE\DOWNLOADS\CURL-7.62.0\CURL-7.62.0\SRC\TOOL_OPERHLP.C|C:\USERS\JUNE\DOWNLOADS\CURL-7.62.0\CURL-7.62.0\SRC\TOOL_PANYKEY.C|C:\USERS\JUNE\DOWNLOADS\CURL-7.62.0\CURL-7.62.0\SRC\TOOL_PARAMHLP.C|C:\USERS\JUNE\DOWNLOADS\CURL-7.62.0\CURL-7.62.0\SRC\TOOL_PARSECFG.C|C:\USERS\JUNE\DOWNLOADS\CURL-7.62.0\CURL-7.62.0\SRC\TOOL_SETOPT.C|C:\USERS\JUNE\DOWNLOADS\CURL-7.62.0\CURL-7.62.0\SRC\TOOL_SLEEP.C|C:\USERS\JUNE\DOWNLOADS\CURL-7.62.0\CURL-7.62.0\SRC\TOOL_STRDUP.C|C:\USERS\JUNE\DOWNLOADS\CURL-7.62.0\CURL-7.62.0\SRC\TOOL_URLGLOB.C|C:\USERS\JUNE\DOWNLOADS\CURL-7.62.0\CURL-7.62.0\SRC\TOOL_UTIL.C|C:\USERS\JUNE\DOWNLOADS\CURL-7.62.0\CURL-7.62.0\SRC\TOOL_VMS.C|C:\USERS\JUNE\DOWNLOADS\CURL-7.62.0\CURL-7.62.0\SRC\TOOL_WRITEOUT.C|C:\USERS\JUNE\DOWNLOADS\CURL-7.62.0\CURL-7.62.0\SRC\TOOL_XATTR.C
C:\USERS\JUNE\DOWNLOADS\CURL-7.62.0\CURL-7.62.0\BUILD\WIN32\VC14\LIB RELEASE\SRC\VC140.PDB
C:\USERS\JUNE\DOWNLOADS\CURL-7.62.0\CURL-7.62.0\BUILD\WIN32\VC14\LIB RELEASE\SRC\TOOL_FORMPARSE.OBJ
C:\USERS\JUNE\DOWNLOADS\CURL-7.62.0\CURL-7.62.0\BUILD\WIN32\VC14\LIB RELEASE\SRC\TOOL_FILETIME.OBJ
C:\USERS\JUNE\DOWNLOADS\CURL-7.62.0\CURL-7.62.0\BUILD\WIN32\VC14\LIB RELEASE\SRC\TOOL_EASYSRC.OBJ
C:\USERS\JUNE\DOWNLOADS\CURL-7.62.0\CURL-7.62.0\BUILD\WIN32\VC14\LIB RELEASE\SRC\TOOL_DOSWIN.OBJ
C:\USERS\JUNE\DOWNLOADS\CURL-7.62.0\CURL-7.62.0\BUILD\WIN32\VC14\LIB RELEASE\SRC\TOOL_DIRHIE.OBJ
C:\USERS\JUNE\DOWNLOADS\CURL-7.62.0\CURL-7.62.0\BUILD\WIN32\VC14\LIB RELEASE\SRC\TOOL_CONVERT.OBJ
C:\USERS\JUNE\DOWNLOADS\CURL-7.62.0\CURL-7.62.0\BUILD\WIN32\VC14\LIB RELEASE\SRC\TOOL_CFGABLE.OBJ
C:\USERS\JUNE\DOWNLOADS\CURL-7.62.0\CURL-7.62.0\BUILD\WIN32\VC14\LIB RELEASE\SRC\TOOL_CB_WRT.OBJ
C:\USERS\JUNE\DOWNLOADS\CURL-7.62.0\CURL-7.62.0\BUILD\WIN32\VC14\LIB RELEASE\SRC\TOOL_CB_SEE.OBJ
C:\USERS\JUNE\DOWNLOADS\CURL-7.62.0\CURL-7.62.0\BUILD\WIN32\VC14\LIB RELEASE\SRC\TOOL_CB_REA.OBJ
C:\USERS\JUNE\DOWNLOADS\CURL-7.62.0\CURL-7.62.0\BUILD\WIN32\VC14\LIB RELEASE\SRC\TOOL_CB_PRG.OBJ
C:\USERS\JUNE\DOWNLOADS\CURL-7.62.0\CURL-7.62.0\BUILD\WIN32\VC14\LIB RELEASE\SRC\TOOL_CB_HDR.OBJ
C:\USERS\JUNE\DOWNLOADS\CURL-7.62.0\CURL-7.62.0\BUILD\WIN32\VC14\LIB RELEASE\SRC\TOOL_CB_DBG.OBJ
C:\USERS\JUNE\DOWNLOADS\CURL-7.62.0\CURL-7.62.0\BUILD\WIN32\VC14\LIB RELEASE\SRC\TOOL_BNAME.OBJ
C:\USERS\JUNE\DOWNLOADS\CURL-7.62.0\CURL-7.62.0\BUILD\WIN32\VC14\LIB RELEASE\SRC\TOOL_BINMODE.OBJ
C:\USERS\JUNE\DOWNLOADS\CURL-7.62.0\CURL-7.62.0\BUILD\WIN32\VC14\LIB RELEASE\SRC\SLIST_WC.OBJ
C:\USERS\JUNE\DOWNLOADS\CURL-7.62.0\CURL-7.62.0\BUILD\WIN32\VC14\LIB RELEASE\SRC\WARNLESS.OBJ
C:\USERS\JUNE\DOWNLOADS\CURL-7.62.0\CURL-7.62.0\BUILD\WIN32\VC14\LIB RELEASE\SRC\STRTOOFFT.OBJ
C:\USERS\JUNE\DOWNLOADS\CURL-7.62.0\CURL-7.62.0\BUILD\WIN32\VC14\LIB RELEASE\SRC\NONBLOCK.OBJ
C:\USERS\JUNE\DOWNLOADS\CURL-7.62.0\CURL-7.62.0\BUILD\WIN32\VC14\LIB RELEASE\SRC\CURL_CTYPE.OBJ
C:\USERS\JUNE\DOWNLOADS\CURL-7.62.0\CURL-7.62.0\BUILD\WIN32\VC14\LIB RELEASE\SRC\TOOL_UTIL.OBJ
C:\USERS\JUNE\DOWNLOADS\CURL-7.62.0\CURL-7.62.0\BUILD\WIN32\VC14\LIB RELEASE\SRC\TOOL_URLGLOB.OBJ
C:\USERS\JUNE\DOWNLOADS\CURL-7.62.0\CURL-7.62.0\BUILD\WIN32\VC14\LIB RELEASE\SRC\TOOL_STRDUP.OBJ
C:\USERS\JUNE\DOWNLOADS\CURL-7.62.0\CURL-7.62.0\BUILD\WIN32\VC14\LIB RELEASE\SRC\TOOL_SLEEP.OBJ
C:\USERS\JUNE\DOWNLOADS\CURL-7.62.0\CURL-7.62.0\BUILD\WIN32\VC14\LIB RELEASE\SRC\TOOL_SETOPT.OBJ
C:\USERS\JUNE\DOWNLOADS\CURL-7.62.0\CURL-7.62.0\BUILD\WIN32\VC14\LIB RELEASE\SRC\TOOL_PARSECFG.OBJ
C:\USERS\JUNE\DOWNLOADS\CURL-7.62.0\CURL-7.62.0\BUILD\WIN32\VC14\LIB RELEASE\SRC\TOOL_PARAMHLP.OBJ
C:\USERS\JUNE\DOWNLOADS\CURL-7.62.0\CURL-7.62.0\BUILD\WIN32\VC14\LIB RELEASE\SRC\TOOL_PANYKEY.OBJ
C:\USERS\JUNE\DOWNLOADS\CURL-7.62.0\CURL-7.62.0\BUILD\WIN32\VC14\LIB RELEASE\SRC\TOOL_OPERHLP.OBJ
C:\USERS\JUNE\DOWNLOADS\CURL-7.62.0\CURL-7.62.0\BUILD\WIN32\VC14\LIB RELEASE\SRC\TOOL_OPERATE.OBJ
C:\USERS\JUNE\DOWNLOADS\CURL-7.62.0\CURL-7.62.0\BUILD\WIN32\VC14\LIB RELEASE\SRC\TOOL_MSGS.OBJ
C:\USERS\JUNE\DOWNLOADS\CURL-7.62.0\CURL-7.62.0\BUILD\WIN32\VC14\LIB RELEASE\SRC\TOOL_METALINK.OBJ
C:\USERS\JUNE\DOWNLOADS\CURL-7.62.0\CURL-7.62.0\BUILD\WIN32\VC14\LIB RELEASE\SRC\TOOL_MAIN.OBJ
C:\USERS\JUNE\DOWNLOADS\CURL-7.62.0\CURL-7.62.0\BUILD\WIN32\VC14\LIB RELEASE\SRC\TOOL_LIBINFO.OBJ
C:\USERS\JUNE\DOWNLOADS\CURL-7.62.0\CURL-7.62.0\BUILD\WIN32\VC14\LIB RELEASE\SRC\TOOL_HUGEHELP.OBJ
C:\USERS\JUNE\DOWNLOADS\CURL-7.62.0\CURL-7.62.0\BUILD\WIN32\VC14\LIB RELEASE\SRC\TOOL_HOMEDIR.OBJ
C:\USERS\JUNE\DOWNLOADS\CURL-7.62.0\CURL-7.62.0\BUILD\WIN32\VC14\LIB RELEASE\SRC\TOOL_HELPERS.OBJ
C:\USERS\JUNE\DOWNLOADS\CURL-7.62.0\CURL-7.62.0\BUILD\WIN32\VC14\LIB RELEASE\SRC\TOOL_HELP.OBJ
C:\USERS\JUNE\DOWNLOADS\CURL-7.62.0\CURL-7.62.0\BUILD\WIN32\VC14\LIB RELEASE\SRC\TOOL_GETPASS.OBJ
C:\USERS\JUNE\DOWNLOADS\CURL-7.62.0\CURL-7.62.0\BUILD\WIN32\VC14\LIB RELEASE\SRC\TOOL_GETPARAM.OBJ
C:\USERS\JUNE\DOWNLOADS\CURL-7.62.0\CURL-7.62.0\BUILD\WIN32\VC14\LIB RELEASE\SRC\TOOL_XATTR.OBJ
C:\USERS\JUNE\DOWNLOADS\CURL-7.62.0\CURL-7.62.0\BUILD\WIN32\VC14\LIB RELEASE\SRC\TOOL_WRITEOUT.OBJ
C:\USERS\JUNE\DOWNLOADS\CURL-7.62.0\CURL-7.62.0\BUILD\WIN32\VC14\LIB RELEASE\SRC\TOOL_VMS.OBJ
^C:\USERS\JUNE\DOWNLOADS\CURL-7.62.0\CURL-7.62.0\LIB\CURL_CTYPE.C
C:\USERS\JUNE\DOWNLOADS\CURL-7.62.0\CURL-7.62.0\BUILD\WIN32\VC14\LIB RELEASE\SRC\VC140.PDB
^C:\USERS\JUNE\DOWNLOADS\CURL-7.62.0\CURL-7.62.0\LIB\NONBLOCK.C
C:\USERS\JUNE\DOWNLOADS\CURL-7.62.0\CURL-7.62.0\BUILD\WIN32\VC14\LIB RELEASE\SRC\VC140.PDB
^C:\USERS\JUNE\DOWNLOADS\CURL-7.62.0\CURL-7.62.0\LIB\STRTOOFFT.C
C:\USERS\JUNE\DOWNLOADS\CURL-7.62.0\CURL-7.62.0\BUILD\WIN32\VC14\LIB RELEASE\SRC\VC140.PDB
^C:\USERS\JUNE\DOWNLOADS\CURL-7.62.0\CURL-7.62.0\LIB\WARNLESS.C
C:\USERS\JUNE\DOWNLOADS\CURL-7.62.0\CURL-7.62.0\BUILD\WIN32\VC14\LIB RELEASE\SRC\VC140.PDB
^C:\USERS\JUNE\DOWNLOADS\CURL-7.62.0\CURL-7.62.0\SRC\SLIST_WC.C
C:\USERS\JUNE\DOWNLOADS\CURL-7.62.0\CURL-7.62.0\BUILD\WIN32\VC14\LIB RELEASE\SRC\VC140.PDB
^C:\USERS\JUNE\DOWNLOADS\CURL-7.62.0\CURL-7.62.0\SRC\TOOL_BINMODE.C
C:\USERS\JUNE\DOWNLOADS\CURL-7.62.0\CURL-7.62.0\BUILD\WIN32\VC14\LIB RELEASE\SRC\VC140.PDB
^C:\USERS\JUNE\DOWNLOADS\CURL-7.62.0\CURL-7.62.0\SRC\TOOL_BNAME.C
C:\USERS\JUNE\DOWNLOADS\CURL-7.62.0\CURL-7.62.0\BUILD\WIN32\VC14\LIB RELEASE\SRC\VC140.PDB
^C:\USERS\JUNE\DOWNLOADS\CURL-7.62.0\CURL-7.62.0\SRC\TOOL_CB_DBG.C
C:\USERS\JUNE\DOWNLOADS\CURL-7.62.0\CURL-7.62.0\BUILD\WIN32\VC14\LIB RELEASE\SRC\VC140.PDB
^C:\USERS\JUNE\DOWNLOADS\CURL-7.62.0\CURL-7.62.0\SRC\TOOL_CB_HDR.C
C:\USERS\JUNE\DOWNLOADS\CURL-7.62.0\CURL-7.62.0\BUILD\WIN32\VC14\LIB RELEASE\SRC\VC140.PDB
^C:\USERS\JUNE\DOWNLOADS\CURL-7.62.0\CURL-7.62.0\SRC\TOOL_CB_PRG.C
C:\USERS\JUNE\DOWNLOADS\CURL-7.62.0\CURL-7.62.0\BUILD\WIN32\VC14\LIB RELEASE\SRC\VC140.PDB
^C:\USERS\JUNE\DOWNLOADS\CURL-7.62.0\CURL-7.62.0\SRC\TOOL_CB_REA.C
C:\USERS\JUNE\DOWNLOADS\CURL-7.62.0\CURL-7.62.0\BUILD\WIN32\VC14\LIB RELEASE\SRC\VC140.PDB
^C:\USERS\JUNE\DOWNLOADS\CURL-7.62.0\CURL-7.62.0\SRC\TOOL_CB_SEE.C
C:\USERS\JUNE\DOWNLOADS\CURL-7.62.0\CURL-7.62.0\BUILD\WIN32\VC14\LIB RELEASE\SRC\VC140.PDB
^C:\USERS\JUNE\DOWNLOADS\CURL-7.62.0\CURL-7.62.0\SRC\TOOL_CB_WRT.C
C:\USERS\JUNE\DOWNLOADS\CURL-7.62.0\CURL-7.62.0\BUILD\WIN32\VC14\LIB RELEASE\SRC\VC140.PDB
^C:\USERS\JUNE\DOWNLOADS\CURL-7.62.0\CURL-7.62.0\SRC\TOOL_CFGABLE.C
C:\USERS\JUNE\DOWNLOADS\CURL-7.62.0\CURL-7.62.0\BUILD\WIN32\VC14\LIB RELEASE\SRC\VC140.PDB
^C:\USERS\JUNE\DOWNLOADS\CURL-7.62.0\CURL-7.62.0\SRC\TOOL_CONVERT.C
C:\USERS\JUNE\DOWNLOADS\CURL-7.62.0\CURL-7.62.0\BUILD\WIN32\VC14\LIB RELEASE\SRC\VC140.PDB
^C:\USERS\JUNE\DOWNLOADS\CURL-7.62.0\CURL-7.62.0\SRC\TOOL_DIRHIE.C
C:\USERS\JUNE\DOWNLOADS\CURL-7.62.0\CURL-7.62.0\BUILD\WIN32\VC14\LIB RELEASE\SRC\VC140.PDB
^C:\USERS\JUNE\DOWNLOADS\CURL-7.62.0\CURL-7.62.0\SRC\TOOL_DOSWIN.C
C:\USERS\JUNE\DOWNLOADS\CURL-7.62.0\CURL-7.62.0\BUILD\WIN32\VC14\LIB RELEASE\SRC\VC140.PDB
^C:\USERS\JUNE\DOWNLOADS\CURL-7.62.0\CURL-7.62.0\SRC\TOOL_EASYSRC.C
C:\USERS\JUNE\DOWNLOADS\CURL-7.62.0\CURL-7.62.0\BUILD\WIN32\VC14\LIB RELEASE\SRC\VC140.PDB
^C:\USERS\JUNE\DOWNLOADS\CURL-7.62.0\CURL-7.62.0\SRC\TOOL_FILETIME.C
C:\USERS\JUNE\DOWNLOADS\CURL-7.62.0\CURL-7.62.0\BUILD\WIN32\VC14\LIB RELEASE\SRC\VC140.PDB
^C:\USERS\JUNE\DOWNLOADS\CURL-7.62.0\CURL-7.62.0\SRC\TOOL_FORMPARSE.C
C:\USERS\JUNE\DOWNLOADS\CURL-7.62.0\CURL-7.62.0\BUILD\WIN32\VC14\LIB RELEASE\SRC\VC140.PDB
^C:\USERS\JUNE\DOWNLOADS\CURL-7.62.0\CURL-7.62.0\SRC\TOOL_GETPARAM.C
C:\USERS\JUNE\DOWNLOADS\CURL-7.62.0\CURL-7.62.0\BUILD\WIN32\VC14\LIB RELEASE\SRC\VC140.PDB
^C:\USERS\JUNE\DOWNLOADS\CURL-7.62.0\CURL-7.62.0\SRC\TOOL_GETPASS.C
C:\USERS\JUNE\DOWNLOADS\CURL-7.62.0\CURL-7.62.0\BUILD\WIN32\VC14\LIB RELEASE\SRC\VC140.PDB
^C:\USERS\JUNE\DOWNLOADS\CURL-7.62.0\CURL-7.62.0\SRC\TOOL_HELP.C
C:\USERS\JUNE\DOWNLOADS\CURL-7.62.0\CURL-7.62.0\BUILD\WIN32\VC14\LIB RELEASE\SRC\VC140.PDB
^C:\USERS\JUNE\DOWNLOADS\CURL-7.62.0\CURL-7.62.0\SRC\TOOL_HELPERS.C
C:\USERS\JUNE\DOWNLOADS\CURL-7.62.0\CURL-7.62.0\BUILD\WIN32\VC14\LIB RELEASE\SRC\VC140.PDB
^C:\USERS\JUNE\DOWNLOADS\CURL-7.62.0\CURL-7.62.0\SRC\TOOL_HOMEDIR.C
C:\USERS\JUNE\DOWNLOADS\CURL-7.62.0\CURL-7.62.0\BUILD\WIN32\VC14\LIB RELEASE\SRC\VC140.PDB
^C:\USERS\JUNE\DOWNLOADS\CURL-7.62.0\CURL-7.62.0\SRC\TOOL_HUGEHELP.C
C:\USERS\JUNE\DOWNLOADS\CURL-7.62.0\CURL-7.62.0\BUILD\WIN32\VC14\LIB RELEASE\SRC\VC140.PDB
^C:\USERS\JUNE\DOWNLOADS\CURL-7.62.0\CURL-7.62.0\SRC\TOOL_LIBINFO.C
C:\USERS\JUNE\DOWNLOADS\CURL-7.62.0\CURL-7.62.0\BUILD\WIN32\VC14\LIB RELEASE\SRC\VC140.PDB
^C:\USERS\JUNE\DOWNLOADS\CURL-7.62.0\CURL-7.62.0\SRC\TOOL_MAIN.C
C:\USERS\JUNE\DOWNLOADS\CURL-7.62.0\CURL-7.62.0\BUILD\WIN32\VC14\LIB RELEASE\SRC\VC140.PDB
^C:\USERS\JUNE\DOWNLOADS\CURL-7.62.0\CURL-7.62.0\SRC\TOOL_METALINK.C
C:\USERS\JUNE\DOWNLOADS\CURL-7.62.0\CURL-7.62.0\BUILD\WIN32\VC14\LIB RELEASE\SRC\VC140.PDB
^C:\USERS\JUNE\DOWNLOADS\CURL-7.62.0\CURL-7.62.0\SRC\TOOL_MSGS.C
C:\USERS\JUNE\DOWNLOADS\CURL-7.62.0\CURL-7.62.0\BUILD\WIN32\VC14\LIB RELEASE\SRC\VC140.PDB
^C:\USERS\JUNE\DOWNLOADS\CURL-7.62.0\CURL-7.62.0\SRC\TOOL_OPERATE.C
C:\USERS\JUNE\DOWNLOADS\CURL-7.62.0\CURL-7.62.0\BUILD\WIN32\VC14\LIB RELEASE\SRC\VC140.PDB
^C:\USERS\JUNE\DOWNLOADS\CURL-7.62.0\CURL-7.62.0\SRC\TOOL_OPERHLP.C
C:\USERS\JUNE\DOWNLOADS\CURL-7.62.0\CURL-7.62.0\BUILD\WIN32\VC14\LIB RELEASE\SRC\VC140.PDB
^C:\USERS\JUNE\DOWNLOADS\CURL-7.62.0\CURL-7.62.0\SRC\TOOL_PANYKEY.C
C:\USERS\JUNE\DOWNLOADS\CURL-7.62.0\CURL-7.62.0\BUILD\WIN32\VC14\LIB RELEASE\SRC\VC140.PDB
^C:\USERS\JUNE\DOWNLOADS\CURL-7.62.0\CURL-7.62.0\SRC\TOOL_PARAMHLP.C
C:\USERS\JUNE\DOWNLOADS\CURL-7.62.0\CURL-7.62.0\BUILD\WIN32\VC14\LIB RELEASE\SRC\VC140.PDB
^C:\USERS\JUNE\DOWNLOADS\CURL-7.62.0\CURL-7.62.0\SRC\TOOL_PARSECFG.C
C:\USERS\JUNE\DOWNLOADS\CURL-7.62.0\CURL-7.62.0\BUILD\WIN32\VC14\LIB RELEASE\SRC\VC140.PDB
^C:\USERS\JUNE\DOWNLOADS\CURL-7.62.0\CURL-7.62.0\SRC\TOOL_SETOPT.C
C:\USERS\JUNE\DOWNLOADS\CURL-7.62.0\CURL-7.62.0\BUILD\WIN32\VC14\LIB RELEASE\SRC\VC140.PDB
^C:\USERS\JUNE\DOWNLOADS\CURL-7.62.0\CURL-7.62.0\SRC\TOOL_SLEEP.C
C:\USERS\JUNE\DOWNLOADS\CURL-7.62.0\CURL-7.62.0\BUILD\WIN32\VC14\LIB RELEASE\SRC\VC140.PDB
^C:\USERS\JUNE\DOWNLOADS\CURL-7.62.0\CURL-7.62.0\SRC\TOOL_STRDUP.C
C:\USERS\JUNE\DOWNLOADS\CURL-7.62.0\CURL-7.62.0\BUILD\WIN32\VC14\LIB RELEASE\SRC\VC140.PDB
^C:\USERS\JUNE\DOWNLOADS\CURL-7.62.0\CURL-7.62.0\SRC\TOOL_URLGLOB.C
C:\USERS\JUNE\DOWNLOADS\CURL-7.62.0\CURL-7.62.0\BUILD\WIN32\VC14\LIB RELEASE\SRC\VC140.PDB
^C:\USERS\JUNE\DOWNLOADS\CURL-7.62.0\CURL-7.62.0\SRC\TOOL_UTIL.C
C:\USERS\JUNE\DOWNLOADS\CURL-7.62.0\CURL-7.62.0\BUILD\WIN32\VC14\LIB RELEASE\SRC\VC140.PDB
^C:\USERS\JUNE\DOWNLOADS\CURL-7.62.0\CURL-7.62.0\SRC\TOOL_VMS.C
C:\USERS\JUNE\DOWNLOADS\CURL-7.62.0\CURL-7.62.0\BUILD\WIN32\VC14\LIB RELEASE\SRC\VC140.PDB
^C:\USERS\JUNE\DOWNLOADS\CURL-7.62.0\CURL-7.62.0\SRC\TOOL_WRITEOUT.C
C:\USERS\JUNE\DOWNLOADS\CURL-7.62.0\CURL-7.62.0\BUILD\WIN32\VC14\LIB RELEASE\SRC\VC140.PDB
^C:\USERS\JUNE\DOWNLOADS\CURL-7.62.0\CURL-7.62.0\SRC\TOOL_XATTR.C
C:\USERS\JUNE\DOWNLOADS\CURL-7.62.0\CURL-7.62.0\BUILD\WIN32\VC14\LIB RELEASE\SRC\VC140.PDB
