^C:\USERS\JUNE\DOWNLOADS\CURL-7.62.0\CURL-7.62.0\BUILD\WIN32\VC14\LIB RELEASE\SRC\CURL.RES|C:\USERS\JUNE\DOWNLOADS\CURL-7.62.0\CURL-7.62.0\BUILD\WIN32\VC14\LIB RELEASE\SRC\CURL_CTYPE.OBJ|C:\USERS\JUNE\DOWNLOADS\CURL-7.62.0\CURL-7.62.0\BUILD\WIN32\VC14\LIB RELEASE\SRC\NONBLOCK.OBJ|C:\USERS\JUNE\DOWNLOADS\CURL-7.62.0\CURL-7.62.0\BUILD\WIN32\VC14\LIB RELEASE\SRC\SLIST_WC.OBJ|C:\USERS\JUNE\DOWNLOADS\CURL-7.62.0\CURL-7.62.0\BUILD\WIN32\VC14\LIB RELEASE\SRC\STRTOOFFT.OBJ|C:\USERS\JUNE\DOWNLOADS\CURL-7.62.0\CURL-7.62.0\BUILD\WIN32\VC14\LIB RELEASE\SRC\TOOL_BINMODE.OBJ|C:\USERS\JUNE\DOWNLOADS\CURL-7.62.0\CURL-7.62.0\BUILD\WIN32\VC14\LIB RELEASE\SRC\TOOL_BNAME.OBJ|C:\USERS\JUNE\DOWNLOADS\CURL-7.62.0\CURL-7.62.0\BUILD\WIN32\VC14\LIB RELEASE\SRC\TOOL_CB_DBG.OBJ|C:\USERS\JUNE\DOWNLOADS\CURL-7.62.0\CURL-7.62.0\BUILD\WIN32\VC14\LIB RELEASE\SRC\TOOL_CB_HDR.OBJ|C:\USERS\JUNE\DOWNLOADS\CURL-7.62.0\CURL-7.62.0\BUILD\WIN32\VC14\LIB RELEASE\SRC\TOOL_CB_PRG.OBJ|C:\USERS\JUNE\DOWNLOADS\CURL-7.62.0\CURL-7.62.0\BUILD\WIN32\VC14\LIB RELEASE\SRC\TOOL_CB_REA.OBJ|C:\USERS\JUNE\DOWNLOADS\CURL-7.62.0\CURL-7.62.0\BUILD\WIN32\VC14\LIB RELEASE\SRC\TOOL_CB_SEE.OBJ|C:\USERS\JUNE\DOWNLOADS\CURL-7.62.0\CURL-7.62.0\BUILD\WIN32\VC14\LIB RELEASE\SRC\TOOL_CB_WRT.OBJ|C:\USERS\JUNE\DOWNLOADS\CURL-7.62.0\CURL-7.62.0\BUILD\WIN32\VC14\LIB RELEASE\SRC\TOOL_CFGABLE.OBJ|C:\USERS\JUNE\DOWNLOADS\CURL-7.62.0\CURL-7.62.0\BUILD\WIN32\VC14\LIB RELEASE\SRC\TOOL_CONVERT.OBJ|C:\USERS\JUNE\DOWNLOADS\CURL-7.62.0\CURL-7.62.0\BUILD\WIN32\VC14\LIB RELEASE\SRC\TOOL_DIRHIE.OBJ|C:\USERS\JUNE\DOWNLOADS\CURL-7.62.0\CURL-7.62.0\BUILD\WIN32\VC14\LIB RELEASE\SRC\TOOL_DOSWIN.OBJ|C:\USERS\JUNE\DOWNLOADS\CURL-7.62.0\CURL-7.62.0\BUILD\WIN32\VC14\LIB RELEASE\SRC\TOOL_EASYSRC.OBJ|C:\USERS\JUNE\DOWNLOADS\CURL-7.62.0\CURL-7.62.0\BUILD\WIN32\VC14\LIB RELEASE\SRC\TOOL_FILETIME.OBJ|C:\USERS\JUNE\DOWNLOADS\CURL-7.62.0\CURL-7.62.0\BUILD\WIN32\VC14\LIB RELEASE\SRC\TOOL_FORMPARSE.OBJ|C:\USERS\JUNE\DOWNLOADS\CURL-7.62.0\CURL-7.62.0\BUILD\WIN32\VC14\LIB RELEASE\SRC\TOOL_GETPARAM.OBJ|C:\USERS\JUNE\DOWNLOADS\CURL-7.62.0\CURL-7.62.0\BUILD\WIN32\VC14\LIB RELEASE\SRC\TOOL_GETPASS.OBJ|C:\USERS\JUNE\DOWNLOADS\CURL-7.62.0\CURL-7.62.0\BUILD\WIN32\VC14\LIB RELEASE\SRC\TOOL_HELP.OBJ|C:\USERS\JUNE\DOWNLOADS\CURL-7.62.0\CURL-7.62.0\BUILD\WIN32\VC14\LIB RELEASE\SRC\TOOL_HELPERS.OBJ|C:\USERS\JUNE\DOWNLOADS\CURL-7.62.0\CURL-7.62.0\BUILD\WIN32\VC14\LIB RELEASE\SRC\TOOL_HOMEDIR.OBJ|C:\USERS\JUNE\DOWNLOADS\CURL-7.62.0\CURL-7.62.0\BUILD\WIN32\VC14\LIB RELEASE\SRC\TOOL_HUGEHELP.OBJ|C:\USERS\JUNE\DOWNLOADS\CURL-7.62.0\CURL-7.62.0\BUILD\WIN32\VC14\LIB RELEASE\SRC\TOOL_LIBINFO.OBJ|C:\USERS\JUNE\DOWNLOADS\CURL-7.62.0\CURL-7.62.0\BUILD\WIN32\VC14\LIB RELEASE\SRC\TOOL_MAIN.OBJ|C:\USERS\JUNE\DOWNLOADS\CURL-7.62.0\CURL-7.62.0\BUILD\WIN32\VC14\LIB RELEASE\SRC\TOOL_METALINK.OBJ|C:\USERS\JUNE\DOWNLOADS\CURL-7.62.0\CURL-7.62.0\BUILD\WIN32\VC14\LIB RELEASE\SRC\TOOL_MSGS.OBJ|C:\USERS\JUNE\DOWNLOADS\CURL-7.62.0\CURL-7.62.0\BUILD\WIN32\VC14\LIB RELEASE\SRC\TOOL_OPERATE.OBJ|C:\USERS\JUNE\DOWNLOADS\CURL-7.62.0\CURL-7.62.0\BUILD\WIN32\VC14\LIB RELEASE\SRC\TOOL_OPERHLP.OBJ|C:\USERS\JUNE\DOWNLOADS\CURL-7.62.0\CURL-7.62.0\BUILD\WIN32\VC14\LIB RELEASE\SRC\TOOL_PANYKEY.OBJ|C:\USERS\JUNE\DOWNLOADS\CURL-7.62.0\CURL-7.62.0\BUILD\WIN32\VC14\LIB RELEASE\SRC\TOOL_PARAMHLP.OBJ|C:\USERS\JUNE\DOWNLOADS\CURL-7.62.0\CURL-7.62.0\BUILD\WIN32\VC14\LIB RELEASE\SRC\TOOL_PARSECFG.OBJ|C:\USERS\JUNE\DOWNLOADS\CURL-7.62.0\CURL-7.62.0\BUILD\WIN32\VC14\LIB RELEASE\SRC\TOOL_SETOPT.OBJ|C:\USERS\JUNE\DOWNLOADS\CURL-7.62.0\CURL-7.62.0\BUILD\WIN32\VC14\LIB RELEASE\SRC\TOOL_SLEEP.OBJ|C:\USERS\JUNE\DOWNLOADS\CURL-7.62.0\CURL-7.62.0\BUILD\WIN32\VC14\LIB RELEASE\SRC\TOOL_STRDUP.OBJ|C:\USERS\JUNE\DOWNLOADS\CURL-7.62.0\CURL-7.62.0\BUILD\WIN32\VC14\LIB RELEASE\SRC\TOOL_URLGLOB.OBJ|C:\USERS\JUNE\DOWNLOADS\CURL-7.62.0\CURL-7.62.0\BUILD\WIN32\VC14\LIB RELEASE\SRC\TOOL_UTIL.OBJ|C:\USERS\JUNE\DOWNLOADS\CURL-7.62.0\CURL-7.62.0\BUILD\WIN32\VC14\LIB RELEASE\SRC\TOOL_VMS.OBJ|C:\USERS\JUNE\DOWNLOADS\CURL-7.62.0\CURL-7.62.0\BUILD\WIN32\VC14\LIB RELEASE\SRC\TOOL_WRITEOUT.OBJ|C:\USERS\JUNE\DOWNLOADS\CURL-7.62.0\CURL-7.62.0\BUILD\WIN32\VC14\LIB RELEASE\SRC\TOOL_XATTR.OBJ|C:\USERS\JUNE\DOWNLOADS\CURL-7.62.0\CURL-7.62.0\BUILD\WIN32\VC14\LIB RELEASE\SRC\WARNLESS.OBJ
C:\WINDOWS\GLOBALIZATION\SORTING\SORTDEFAULT.NLS
C:\PROGRAM FILES (X86)\WINDOWS KITS\8.1\LIB\WINV6.3\UM\X86\WS2_32.LIB
C:\PROGRAM FILES (X86)\WINDOWS KITS\8.1\LIB\WINV6.3\UM\X86\WLDAP32.LIB
C:\USERS\JUNE\DOWNLOADS\CURL-7.62.0\CURL-7.62.0\BUILD\WIN32\VC14\LIB RELEASE\LIBCURL.LIB
C:\PROGRAM FILES (X86)\WINDOWS KITS\8.1\LIB\WINV6.3\UM\X86\KERNEL32.LIB
C:\PROGRAM FILES (X86)\WINDOWS KITS\8.1\LIB\WINV6.3\UM\X86\USER32.LIB
C:\PROGRAM FILES (X86)\WINDOWS KITS\8.1\LIB\WINV6.3\UM\X86\GDI32.LIB
C:\PROGRAM FILES (X86)\WINDOWS KITS\8.1\LIB\WINV6.3\UM\X86\WINSPOOL.LIB
C:\PROGRAM FILES (X86)\WINDOWS KITS\8.1\LIB\WINV6.3\UM\X86\COMDLG32.LIB
C:\PROGRAM FILES (X86)\WINDOWS KITS\8.1\LIB\WINV6.3\UM\X86\ADVAPI32.LIB
C:\PROGRAM FILES (X86)\WINDOWS KITS\8.1\LIB\WINV6.3\UM\X86\SHELL32.LIB
C:\PROGRAM FILES (X86)\WINDOWS KITS\8.1\LIB\WINV6.3\UM\X86\OLE32.LIB
C:\PROGRAM FILES (X86)\WINDOWS KITS\8.1\LIB\WINV6.3\UM\X86\OLEAUT32.LIB
C:\PROGRAM FILES (X86)\WINDOWS KITS\8.1\LIB\WINV6.3\UM\X86\UUID.LIB
C:\PROGRAM FILES (X86)\WINDOWS KITS\8.1\LIB\WINV6.3\UM\X86\ODBC32.LIB
C:\PROGRAM FILES (X86)\WINDOWS KITS\8.1\LIB\WINV6.3\UM\X86\ODBCCP32.LIB
C:\USERS\JUNE\DOWNLOADS\CURL-7.62.0\CURL-7.62.0\BUILD\WIN32\VC14\LIB RELEASE\SRC\CURL.RES
C:\USERS\JUNE\DOWNLOADS\CURL-7.62.0\CURL-7.62.0\BUILD\WIN32\VC14\LIB RELEASE\SRC\CURL_CTYPE.OBJ
C:\USERS\JUNE\DOWNLOADS\CURL-7.62.0\CURL-7.62.0\BUILD\WIN32\VC14\LIB RELEASE\SRC\NONBLOCK.OBJ
C:\USERS\JUNE\DOWNLOADS\CURL-7.62.0\CURL-7.62.0\BUILD\WIN32\VC14\LIB RELEASE\SRC\STRTOOFFT.OBJ
C:\USERS\JUNE\DOWNLOADS\CURL-7.62.0\CURL-7.62.0\BUILD\WIN32\VC14\LIB RELEASE\SRC\WARNLESS.OBJ
C:\USERS\JUNE\DOWNLOADS\CURL-7.62.0\CURL-7.62.0\BUILD\WIN32\VC14\LIB RELEASE\SRC\SLIST_WC.OBJ
C:\USERS\JUNE\DOWNLOADS\CURL-7.62.0\CURL-7.62.0\BUILD\WIN32\VC14\LIB RELEASE\SRC\TOOL_BINMODE.OBJ
C:\USERS\JUNE\DOWNLOADS\CURL-7.62.0\CURL-7.62.0\BUILD\WIN32\VC14\LIB RELEASE\SRC\TOOL_BNAME.OBJ
C:\USERS\JUNE\DOWNLOADS\CURL-7.62.0\CURL-7.62.0\BUILD\WIN32\VC14\LIB RELEASE\SRC\TOOL_CB_DBG.OBJ
C:\USERS\JUNE\DOWNLOADS\CURL-7.62.0\CURL-7.62.0\BUILD\WIN32\VC14\LIB RELEASE\SRC\TOOL_CB_HDR.OBJ
C:\USERS\JUNE\DOWNLOADS\CURL-7.62.0\CURL-7.62.0\BUILD\WIN32\VC14\LIB RELEASE\SRC\TOOL_CB_PRG.OBJ
C:\USERS\JUNE\DOWNLOADS\CURL-7.62.0\CURL-7.62.0\BUILD\WIN32\VC14\LIB RELEASE\SRC\TOOL_CB_REA.OBJ
C:\USERS\JUNE\DOWNLOADS\CURL-7.62.0\CURL-7.62.0\BUILD\WIN32\VC14\LIB RELEASE\SRC\TOOL_CB_SEE.OBJ
C:\USERS\JUNE\DOWNLOADS\CURL-7.62.0\CURL-7.62.0\BUILD\WIN32\VC14\LIB RELEASE\SRC\TOOL_CB_WRT.OBJ
C:\USERS\JUNE\DOWNLOADS\CURL-7.62.0\CURL-7.62.0\BUILD\WIN32\VC14\LIB RELEASE\SRC\TOOL_CFGABLE.OBJ
C:\USERS\JUNE\DOWNLOADS\CURL-7.62.0\CURL-7.62.0\BUILD\WIN32\VC14\LIB RELEASE\SRC\TOOL_CONVERT.OBJ
C:\USERS\JUNE\DOWNLOADS\CURL-7.62.0\CURL-7.62.0\BUILD\WIN32\VC14\LIB RELEASE\SRC\TOOL_DIRHIE.OBJ
C:\USERS\JUNE\DOWNLOADS\CURL-7.62.0\CURL-7.62.0\BUILD\WIN32\VC14\LIB RELEASE\SRC\TOOL_DOSWIN.OBJ
C:\USERS\JUNE\DOWNLOADS\CURL-7.62.0\CURL-7.62.0\BUILD\WIN32\VC14\LIB RELEASE\SRC\TOOL_EASYSRC.OBJ
C:\USERS\JUNE\DOWNLOADS\CURL-7.62.0\CURL-7.62.0\BUILD\WIN32\VC14\LIB RELEASE\SRC\TOOL_FILETIME.OBJ
C:\USERS\JUNE\DOWNLOADS\CURL-7.62.0\CURL-7.62.0\BUILD\WIN32\VC14\LIB RELEASE\SRC\TOOL_FORMPARSE.OBJ
C:\USERS\JUNE\DOWNLOADS\CURL-7.62.0\CURL-7.62.0\BUILD\WIN32\VC14\LIB RELEASE\SRC\TOOL_GETPARAM.OBJ
C:\USERS\JUNE\DOWNLOADS\CURL-7.62.0\CURL-7.62.0\BUILD\WIN32\VC14\LIB RELEASE\SRC\TOOL_GETPASS.OBJ
C:\USERS\JUNE\DOWNLOADS\CURL-7.62.0\CURL-7.62.0\BUILD\WIN32\VC14\LIB RELEASE\SRC\TOOL_HELP.OBJ
C:\USERS\JUNE\DOWNLOADS\CURL-7.62.0\CURL-7.62.0\BUILD\WIN32\VC14\LIB RELEASE\SRC\TOOL_HELPERS.OBJ
C:\USERS\JUNE\DOWNLOADS\CURL-7.62.0\CURL-7.62.0\BUILD\WIN32\VC14\LIB RELEASE\SRC\TOOL_HOMEDIR.OBJ
C:\USERS\JUNE\DOWNLOADS\CURL-7.62.0\CURL-7.62.0\BUILD\WIN32\VC14\LIB RELEASE\SRC\TOOL_HUGEHELP.OBJ
C:\USERS\JUNE\DOWNLOADS\CURL-7.62.0\CURL-7.62.0\BUILD\WIN32\VC14\LIB RELEASE\SRC\TOOL_LIBINFO.OBJ
C:\USERS\JUNE\DOWNLOADS\CURL-7.62.0\CURL-7.62.0\BUILD\WIN32\VC14\LIB RELEASE\SRC\TOOL_MAIN.OBJ
C:\USERS\JUNE\DOWNLOADS\CURL-7.62.0\CURL-7.62.0\BUILD\WIN32\VC14\LIB RELEASE\SRC\TOOL_METALINK.OBJ
C:\USERS\JUNE\DOWNLOADS\CURL-7.62.0\CURL-7.62.0\BUILD\WIN32\VC14\LIB RELEASE\SRC\TOOL_MSGS.OBJ
C:\USERS\JUNE\DOWNLOADS\CURL-7.62.0\CURL-7.62.0\BUILD\WIN32\VC14\LIB RELEASE\SRC\TOOL_OPERATE.OBJ
C:\USERS\JUNE\DOWNLOADS\CURL-7.62.0\CURL-7.62.0\BUILD\WIN32\VC14\LIB RELEASE\SRC\TOOL_OPERHLP.OBJ
C:\USERS\JUNE\DOWNLOADS\CURL-7.62.0\CURL-7.62.0\BUILD\WIN32\VC14\LIB RELEASE\SRC\TOOL_PANYKEY.OBJ
C:\USERS\JUNE\DOWNLOADS\CURL-7.62.0\CURL-7.62.0\BUILD\WIN32\VC14\LIB RELEASE\SRC\TOOL_PARAMHLP.OBJ
C:\USERS\JUNE\DOWNLOADS\CURL-7.62.0\CURL-7.62.0\BUILD\WIN32\VC14\LIB RELEASE\SRC\TOOL_PARSECFG.OBJ
C:\USERS\JUNE\DOWNLOADS\CURL-7.62.0\CURL-7.62.0\BUILD\WIN32\VC14\LIB RELEASE\SRC\TOOL_SETOPT.OBJ
C:\USERS\JUNE\DOWNLOADS\CURL-7.62.0\CURL-7.62.0\BUILD\WIN32\VC14\LIB RELEASE\SRC\TOOL_SLEEP.OBJ
C:\USERS\JUNE\DOWNLOADS\CURL-7.62.0\CURL-7.62.0\BUILD\WIN32\VC14\LIB RELEASE\SRC\TOOL_STRDUP.OBJ
C:\USERS\JUNE\DOWNLOADS\CURL-7.62.0\CURL-7.62.0\BUILD\WIN32\VC14\LIB RELEASE\SRC\TOOL_URLGLOB.OBJ
C:\USERS\JUNE\DOWNLOADS\CURL-7.62.0\CURL-7.62.0\BUILD\WIN32\VC14\LIB RELEASE\SRC\TOOL_UTIL.OBJ
C:\USERS\JUNE\DOWNLOADS\CURL-7.62.0\CURL-7.62.0\BUILD\WIN32\VC14\LIB RELEASE\SRC\TOOL_VMS.OBJ
C:\USERS\JUNE\DOWNLOADS\CURL-7.62.0\CURL-7.62.0\BUILD\WIN32\VC14\LIB RELEASE\SRC\TOOL_WRITEOUT.OBJ
C:\USERS\JUNE\DOWNLOADS\CURL-7.62.0\CURL-7.62.0\BUILD\WIN32\VC14\LIB RELEASE\SRC\TOOL_XATTR.OBJ
C:\PROGRAM FILES (X86)\MICROSOFT VISUAL STUDIO 14.0\VC\LIB\MSVCRT.LIB
C:\PROGRAM FILES (X86)\MICROSOFT VISUAL STUDIO 14.0\VC\LIB\OLDNAMES.LIB
C:\PROGRAM FILES (X86)\MICROSOFT VISUAL STUDIO 14.0\VC\LIB\VCRUNTIME.LIB
C:\PROGRAM FILES (X86)\WINDOWS KITS\10\LIB\10.0.10240.0\UCRT\X86\UCRT.LIB
C:\PROGRAM FILES (X86)\WINDOWS KITS\8.1\BIN\X86\RC.EXE
C:\PROGRAM FILES (X86)\MICROSOFT VISUAL STUDIO 14.0\VC\BIN\CVTRES.EXE
C:\PROGRAM FILES (X86)\MICROSOFT VISUAL STUDIO 14.0\VC\BIN\MSPDBSRV.EXE
C:\WINDOWS\SYSTEM32\TZRES.DLL
